[
  {
    "gender": "female",
    "name": {
      "title": "miss",
      "first": "mary",
      "last": "jones"
    },
    "email": "mary.jones56@example.com",
    "username": "bigbear866"
  },
  {
    "gender": "male",
    "name": {
      "title": "mr",
      "first": "alan",
      "last": "walters"
    },
    "email": "alan.walters29@example.com",
    "username": "bigkoala328"
  },
  {
    "gender": "female",
    "name": {
      "title": "miss",
      "first": "miriam",
      "last": "wallace"
    },
    "email": "miriam.wallace36@example.com",
    "username": "bigladybug498"
  },
  {
    "gender": "female",
    "name": {
      "title": "mrs",
      "first": "annette",
      "last": "black"
    },
    "email": "annette.black70@example.com",
    "username": "biglion303"
  }
]
